<?xml version="1.0" encoding="UTF-8" standalone="no"?>
<svg width="15px" height="9px" viewBox="0 0 15 9" version="1.1" xmlns="http://www.w3.org/2000/svg" xmlns:xlink="http://www.w3.org/1999/xlink">
    <!-- Generator: Sketch 3.6.1 (26313) - http://www.bohemiancoding.com/sketch -->
    <title>Path 4</title>
    <desc>Created with Sketch.</desc>
    <defs></defs>
    <g id="Desktop" stroke="none" stroke-width="1" fill="none" fill-rule="evenodd">
        <g id="Account-Dashboard---Desktop" transform="translate(-1297.000000, -308.000000)" stroke="#3D3A35" stroke-width="1.5">
            <g id="Group-4" transform="translate(746.000000, 192.000000)">
                <path d="M552,117.047598 L558.841948,123.158052 L565,117" id="Path-4"></path>
            </g>
        </g>
    </g>
</svg>