<?xml version="1.0" encoding="UTF-8" standalone="no"?>
<svg width="39px" height="39px" viewBox="0 0 39 39" version="1.1" xmlns="http://www.w3.org/2000/svg" xmlns:xlink="http://www.w3.org/1999/xlink">
    <!-- Generator: Sketch 3.6.1 (26313) - http://www.bohemiancoding.com/sketch -->
    <title>Gold Outline Star 22</title>
    <desc>Created with Sketch.</desc>
    <defs></defs>
    <g id="Desktop" stroke="none" stroke-width="1" fill="none" fill-rule="evenodd">
        <g id="Gold-Outline-Star-22" fill="#999999">
            <path d="M19.1417177,0 C18.6007038,0 18.1213955,0.365779867 17.9556009,0.90530517 L14.0320041,13.6540399 L1.24961739,13.6253 L1.24650095,13.6253 C0.706733698,13.6253 0.22804865,13.9891204 0.061007513,14.5279925 C-0.106033624,15.0668646 0.0778362842,15.6573378 0.516007624,15.9898056 L10.8738047,23.8397028 L6.89722836,36.5708017 C6.72894065,37.1096738 6.91156398,37.7008002 7.34911203,38.0339212 C7.56788606,38.2004817 7.82468064,38.2834353 8.08209852,38.2834353 C8.34013967,38.2834353 8.59818083,38.1998285 8.81695486,38.0326148 L19.1417177,30.1350356 L29.4664805,38.0326148 C29.6852545,38.1998285 29.9432956,38.2834353 30.2013368,38.2834353 C30.4587547,38.2834353 30.7155493,38.2004817 30.9343233,38.0339212 C31.3718713,37.7008002 31.5544947,37.1096738 31.386207,36.5708017 L27.4096306,23.8397028 L37.7674277,15.9898056 C38.205599,15.6573378 38.3894689,15.0668646 38.2224278,14.5279925 C38.0553867,13.9891204 37.5767016,13.6253 37.0369344,13.6253 L37.0338179,13.6253 L24.2514312,13.6540399 L20.3278344,0.90530517 C20.1620398,0.365779867 19.6827315,0 19.1417177,0 Z M19.1417177,4.26268244 L22.7106359,15.8595064 L34.3378044,15.8328827 L24.9161354,22.9730164 L28.5332179,34.5532006 L19.1417177,27.3698035 L9.75021741,34.5532006 L13.3673,22.9730164 L3.94563089,15.8328827 L15.5727994,15.8595064 L19.1417177,4.26268244 Z" id="Fill-1"></path>
        </g>
    </g>
</svg>