<?xml version="1.0" encoding="UTF-8" standalone="no"?>
<svg width="20px" height="20px" viewBox="0 0 20 20" version="1.1" xmlns="http://www.w3.org/2000/svg" xmlns:xlink="http://www.w3.org/1999/xlink">
    <!-- Generator: Sketch 3.6.1 (26313) - http://www.bohemiancoding.com/sketch -->
    <title>ICON</title>
    <desc>Created with Sketch.</desc>
    <defs></defs>
    <g id="iOS" stroke="none" stroke-width="1" fill="none" fill-rule="evenodd">
        <g id="Group" transform="translate(-20.000000, -20.000000)" fill="#75787B">
            <g id="ICON" transform="translate(20.000000, 20.000000)">
                <path d="M19.8562416,0.513918919 C19.8542282,0.216621622 19.6108725,0 19.3155705,0 L12.1280537,0 C11.8327517,0 11.4202685,0.14527027 11.2115436,0.355540541 L0.156644295,11.4718919 C-0.0522147651,11.6821622 -0.0522147651,12.0194595 0.156644295,12.2297297 L7.71731544,19.8381081 C7.92604027,20.0482432 8.26778523,20.0466216 8.47651007,19.8363514 L19.5315436,8.70594595 C19.7404027,8.49567568 19.9095302,8.09337838 19.9073826,7.79608108 L19.8562416,0.513918919 L19.8562416,0.513918919 Z M17.0748993,5.51540541 C16.330604,6.26432432 15.1238926,6.26432432 14.3798658,5.51554054 C13.6359732,4.76621622 13.6359732,3.55162162 14.3798658,2.8022973 C15.1238926,2.05324324 16.330604,2.05324324 17.0748993,2.80243243 C17.8187919,3.55162162 17.8187919,4.76621622 17.0748993,5.51540541 L17.0748993,5.51540541 Z" id="Icon_Offer"></path>
            </g>
        </g>
    </g>
</svg>